<svg xmlns="http://www.w3.org/2000/svg" width="331" height="19" viewBox="0 0 331 19">
    <path fill="none" fill-rule="evenodd" stroke="#000" d="M0 18C105.497-4.667 215.83-4.667 331 18" opacity=".12"/>
</svg>
