<svg xmlns="http://www.w3.org/2000/svg" width="16" height="16" viewBox="0 0 16 16">
    <g fill="none" fill-rule="evenodd" stroke="#E52100" stroke-width="2">
        <path d="M2.857 3L13.18 13.321M13.143 3L2.82 13.321"/>
    </g>
</svg>
