<svg xmlns="http://www.w3.org/2000/svg" width="219" height="12" viewBox="0 0 219 12">
    <path fill="none" fill-rule="evenodd" stroke="#000" stroke-dasharray="1,2" d="M0 11C77.333-2.333 150.667-2.333 220 11" opacity=".3"/>
</svg>
