<svg xmlns="http://www.w3.org/2000/svg" width="71" height="64" viewBox="0 0 71 64">
    <g fill="none" fill-rule="evenodd">
        <path stroke="#E52100" stroke-linecap="round" stroke-linejoin="round" stroke-width="2" d="M55.133 10.995L33.688 1 1 20.938l21.446 9.995z"/>
        <path stroke="#E52100" stroke-linecap="round" stroke-linejoin="round" stroke-width="2" d="M1 26.883l21.446 9.995 33.38-20.56"/>
        <path stroke="#E52100" stroke-linecap="round" stroke-linejoin="round" stroke-width="2" d="M1 32.01l21.446 9.995 26.8-16.813"/>
        <path stroke="#E52100" stroke-linecap="round" stroke-linejoin="round" stroke-width="2" d="M1 37.238l21.446 9.995 21.75-13.267"/>
        <path stroke="#E52100" stroke-width="2" d="M70.283 29.66v3.783c-.084 3.134-4.297 5.675-9.41 5.675-5.111 0-9.187-2.54-9.102-5.675V29.66"/>
        <path stroke="#E52100" stroke-width="2" d="M70.283 33.698v3.783c-.084 3.134-4.297 5.675-9.41 5.675-5.111 0-9.187-2.54-9.102-5.675v-3.783"/>
        <path stroke="#E52100" stroke-width="2" d="M70.284 37.793v3.783c-.085 3.134-4.297 5.675-9.41 5.675-5.111 0-9.187-2.541-9.102-5.675v-3.783M70.283 29.065c0-3.136-3.99-5.675-9.103-5.675-5.111 0-9.324 2.54-9.41 5.675-.084 3.134 3.992 5.675 9.104 5.675 5.04 0 9.41-2.25 9.41-5.675zM52.65 47.542v3.783C52.567 54.459 48.354 57 43.242 57c-5.112 0-9.188-2.541-9.103-5.675v-3.783"/>
        <path stroke="#E52100" stroke-width="2" d="M52.65 46.947c.086-3.135-3.99-5.675-9.102-5.675s-9.325 2.54-9.41 5.675c-.085 3.133 3.991 5.674 9.103 5.674s9.325-2.54 9.41-5.675z"/>
        <path stroke="#000" stroke-linecap="round" stroke-linejoin="round" stroke-width="1.5" d="M25.425 17.945l4.632-2.848c1.57-.965 1.402-2.48-.373-3.383-1.777-.904-4.488-.854-6.058.11l-1.346.83-1.673 1.028 11.93 6.069M27.977 19.243l5.482-3.371"/>
    </g>
</svg>
