<svg xmlns="http://www.w3.org/2000/svg" width="1152" height="42" viewBox="0 0 1152 42">
    <g fill="none" fill-rule="evenodd" stroke="#000" opacity=".2">
        <path d="M571 42c2.666-14 13.33-21 31.993-21H991M571 42c-2.666-14-13.33-21-31.993-21H151M1151 0c-2.666 14-13.33 21-31.993 21H988M1 0c2.83 14 14.148 21 33.956 21H174"/>
    </g>
</svg>
