<svg xmlns="http://www.w3.org/2000/svg" width="64" height="64" viewBox="0 0 64 64">
    <g fill="none" fill-rule="evenodd" stroke-linejoin="round" stroke-width="2">
        <path stroke="#E52100" d="M5 57.516s5.125-12.387 16.231-26.483C32.337 16.938 43.015 9.676 37.249 12.025c-5.766 2.35-9.397 7.05-17.085 15.591C12.475 36.16 9.058 42.352 9.058 42.352s-.641-9.396 4.058-20.715C17.814 10.318 25.502 7.968 25.502 7.968l1.069 6.621S33.618-.575 51.131 1.134c17.513 1.708-6.621 18.367-6.621 18.367h8.33s-3.418 6.487-11.107 9.757c-7.688 3.271-10.481 3.484-10.481 3.484l11.977.214s-5.339 9.396-15.377 13.881c-10.038 4.485-13.669 2.777-13.669 2.777S10.552 56.448 5 57.516z"/>
        <path stroke="#000" d="M59.617 63c-4.445 0-4.445-4-8.89-4-4.447 0-4.447 4-8.893 4-4.445 0-4.445-4-8.89-4-4.45 0-4.45 4-8.897 4-4.448 0-4.448-4-8.896-4"/>
    </g>
</svg>
