<svg xmlns="http://www.w3.org/2000/svg" width="21" height="26" viewBox="0 0 21 26">
    <g fill="none" fill-rule="evenodd" stroke="#FFF" stroke-width="2" opacity=".4">
        <path stroke-linejoin="round" d="M20 24H3.09A2.082 2.082 0 0 1 1 21.927c0-1.144.936-2.072 2.09-2.072H20V1l-16.91.016C1.937 1.016 1 1.944 1 3.089v18.838"/>
        <path stroke-linecap="round" stroke-linejoin="round" d="M10.5 6l1.062 3.438H15l-2.781 2.124L13.28 15 10.5 12.876 7.72 15l1.061-3.438L6 9.438h3.438z"/>
        <path d="M20 18v7.071"/>
    </g>
</svg>
