<svg xmlns="http://www.w3.org/2000/svg" width="26" height="27" viewBox="0 0 26 27">
    <g fill="none" fill-rule="evenodd" stroke="#FFF" stroke-linejoin="round" stroke-width="2" opacity=".4">
        <path d="M3.698 6C2.208 6 1 7.965 1 10.39c0 2.424 1.208 4.388 2.698 4.388M9.698 6C8.208 6 7 7.965 7 10.39c0 2.424 1.208 4.388 2.698 4.388"/>
        <path d="M3 5.974h8.147C16.07 5.974 21.703 1 21.703 1v18.713s-5.26-4.974-10.556-4.974H3M22.086 14.313c1.446-.603 2.483-2.229 2.483-4.14 0-1.948-1.078-3.6-2.569-4.173"/>
        <path d="M6 15.229c.104.336 2.402 6.834 3.297 9.148a1.11 1.11 0 0 0 1.036.705h3.284c.801 0 1.338-.814 1.015-1.539l-.355-.86c-.23-.517-1.17-1.094-1.65-1.452a2.147 2.147 0 0 1-.73-.967L10.068 15"/>
    </g>
</svg>
