<svg xmlns="http://www.w3.org/2000/svg" width="16" height="16" viewBox="0 0 16 16">
    <g fill="none" fill-rule="evenodd" stroke="#F39C12" stroke-width="2" transform="translate(1 1)">
        <circle cx="7" cy="7" r="7"/>
        <path d="M7 3.5v4.375h3.5"/>
    </g>
</svg>
