<svg xmlns="http://www.w3.org/2000/svg" width="64" height="64" viewBox="0 0 64 64">
    <g fill="none" fill-rule="evenodd">
        <path fill="#000" d="M31.095 14.244v9.346h1.562c2.765 0 4.75-1.322 4.75-4.807 0-3.186-1.654-4.689-4.599-4.689-.842 0-1.233.03-1.713.15zm-6.16 9.346h2.553v-9.196c-.9-.15-1.712-.45-2.464-.811v-.992h3.186c1.592 0 3.515-.24 5.229-.24 4.087 0 7.933 1.413 7.933 6.37 0 4.719-3.846 6.582-8.505 6.582h-1.772v1.983h5.47v1.744h-5.47v2.825c1.082.12 2.133.42 2.975.78v.993h-9.046v-.992c.811-.42 1.652-.63 2.464-.78V29.03h-2.554v-1.744h2.554v-1.983h-2.554V23.59z"/>
        <path stroke="#E52100" stroke-linejoin="round" stroke-width="2" d="M26.24 56.567h28.264M9 51.56V6.047a5.008 5.008 0 0 1 5.007-5.009L54.504 1v45.552H14.007a5.007 5.007 0 1 0 0 10.015H17.9M52.182 46.552v10.015"/>
        <path stroke="#E52100" stroke-linejoin="round" stroke-width="2" d="M26.797 63l-4.171-4.45L18.455 63V50.489h8.342z"/>
    </g>
</svg>
