<svg xmlns="http://www.w3.org/2000/svg" width="18" height="24" viewBox="0 0 18 24">
    <g fill="none" fill-rule="evenodd" stroke="#E52100" stroke-linejoin="round" stroke-width="2">
        <path d="M9.603 20.596h7.444M1 18.83V2.78c0-.976.79-1.766 1.766-1.766L17.048 1v16.064H2.766a1.766 1.766 0 1 0 0 3.532H4.98M4.068 1.013v16.051M16.228 17.064v3.532"/>
        <path d="M9.755 17.137V23L7.52 20.616 5.285 23v-5.863"/>
    </g>
</svg>
