<svg xmlns="http://www.w3.org/2000/svg" width="72" height="42" viewBox="0 0 72 42">
    <g fill="none" fill-rule="evenodd" stroke-linejoin="round" stroke-width="2">
        <path stroke="#E52100" d="M36.063 41V5.335S38.26 1 52.281 1h12.397C68.17 1 71 3.801 71 7.257v23.151c0 3.455-2.83 6.257-6.322 6.257H52.281C38.26 36.665 36.063 41 36.063 41zM35.937 41s-2.197-4.335-16.218-4.335H7.322C3.83 36.665 1 33.863 1 30.408V7.257C1 3.801 3.83 1 7.322 1h12.397C33.74 1 35.937 5.335 35.937 5.335"/>
        <path stroke="#000" d="M41.791 9.981h20.692M41.71 15.687h11.67M8.666 17.816H27.57V8.838H8.666z"/>
    </g>
</svg>
