<svg xmlns="http://www.w3.org/2000/svg" width="70" height="63" viewBox="0 0 70 63">
    <g fill="none" fill-rule="evenodd" stroke-linecap="round" stroke-linejoin="round" stroke-width="2">
        <path stroke="#000" d="M40 8l6.61 20.343H68L50.695 40.916l6.61 20.343L40 48.686 22.695 61.259l6.61-20.343L12 28.343h21.39z"/>
        <path stroke="#E52100" d="M9 39l1.889 5.812H17l-4.944 3.593 1.888 5.812L9 50.625l-4.944 3.592 1.888-5.812L1 44.812h6.111zM61 1l1.889 5.812H69l-4.944 3.593 1.888 5.812L61 12.625l-4.944 3.592 1.888-5.812L53 6.812h6.111z"/>
    </g>
</svg>
