<svg xmlns="http://www.w3.org/2000/svg" width="57" height="66" viewBox="0 0 57 66">
    <g fill="none" fill-rule="evenodd">
        <path fill="#FFF" d="M56.01 5.991v59.032H1V5.99C3.673 3.336 5.676 2.672 7.01 4c1.333 1.328 2.666 1.991 4 1.991 0-1.994 3.333-2.991 10-2.991 4.374 0 9.318 2.133 18 2.991 3.031.3 8.698.3 17 0z"/>
        <path stroke="#E52100" stroke-linejoin="round" stroke-width="2" d="M1.148 60.907V4.194c0-1.123 1.791-2.034 4-2.034 2.21 0 4 .911 4 2.034v56.713"/>
        <path stroke="#E52100" stroke-linejoin="round" stroke-width="2" d="M9.148 60.907c0-.966-1.79-1.75-4-1.75-2.209 0-4 .784-4 1.75 0 0-1.333 2.25 4 2.25h50.75"/>
        <path stroke="#E52100" stroke-linejoin="round" stroke-width="2" d="M9.148 4.194s6.25-5.534 22-2.034 24.75.437 24.75.437v56.56s-9 3.063-24.75-.437-22 2.034-22 2.034l-.539-.722"/>
        <path stroke="#E52100" stroke-linejoin="round" stroke-width="2" d="M15.652 14.49c1.498-.284 3.264-.474 5.318-.484 2.765-.012 6.052.303 9.908 1.16a71.66 71.66 0 0 0 8.81 1.408c1.998.188 3.822.266 5.464.27M15.652 20.837c2.124-.402 4.788-.616 8.048-.393 2.132.146 4.52.48 7.178 1.07"/>
        <path stroke="#000" stroke-linecap="round" stroke-linejoin="round" stroke-width="2" d="M33.035 29.582c11.375 1.833 19.301-3.32 19.301-9.565 0-7.307-7.478-11.81-16.703-11.81s-16.704 4.503-16.704 11.81c0 7.308 5.981 13.44 20.345 12.817M36 43l3.536 3.536L47 39"/>
    </g>
</svg>
