<svg xmlns="http://www.w3.org/2000/svg" width="62" height="62" viewBox="0 0 62 62">
    <g fill="none" fill-rule="evenodd">
        <path fill="#FFF" stroke="#E52100" stroke-linecap="round" stroke-linejoin="round" stroke-width="2" d="M21.89 27.89H7a6 6 0 0 1-6-6V7a6 6 0 0 1 6-6h14.89a6 6 0 0 1 6 6v14.89a6 6 0 0 1-6 6zM54.91 27.89H40.02a6 6 0 0 1-6-6V7a6 6 0 0 1 6-6h14.89a6 6 0 0 1 6 6v14.89a6 6 0 0 1-6 6zM21.89 61H7a6 6 0 0 1-6-6V40.11a6 6 0 0 1 6-6h14.89a6 6 0 0 1 6 6V55a6 6 0 0 1-6 6zM54.91 61H40.02a6 6 0 0 1-6-6V40.11a6 6 0 0 1 6-6h14.89a6 6 0 0 1 6 6V55a6 6 0 0 1-6 6z"/>
        <path stroke="#000" stroke-linecap="round" stroke-linejoin="round" stroke-width="2" d="M14.445 8.757v10.687M19.789 14.1H9.102"/>
        <path stroke="#E52100" stroke-linecap="round" stroke-linejoin="round" stroke-width="2" d="M53.575 14.1H42.886M51.933 43.504l-8.557 8.557M18.224 43.504l-7.557 7.557M43.862 43.504l8.557 8.557"/>
        <path fill="#E52100" d="M19.272 50.372a1.378 1.378 0 1 0-2.757-.001 1.378 1.378 0 0 0 2.757.001M12.243 44.033a1.378 1.378 0 1 0-2.757-.001 1.378 1.378 0 0 0 2.757 0"/>
    </g>
</svg>
