<svg xmlns="http://www.w3.org/2000/svg" width="194" height="333" viewBox="0 0 194 333">
    <defs>
        <linearGradient id="a" x1="56.681%" x2="56.681%" y1="92.231%" y2="-4.587%">
            <stop offset="0%" stop-color="#D678CE"/>
            <stop offset="100%" stop-color="#F99880"/>
        </linearGradient>
    </defs>
    <path fill="url(#a)" fill-rule="evenodd" d="M60 678h194v333l-97-33.91L60 1011z" transform="translate(-60 -678)"/>
</svg>
