<?xml version="1.0" encoding="UTF-8"?>
<svg width="19px" height="23px" viewBox="0 0 19 23" version="1.1" xmlns="http://www.w3.org/2000/svg" xmlns:xlink="http://www.w3.org/1999/xlink">
    <!-- Generator: Sketch 48.2 (47327) - http://www.bohemiancoding.com/sketch -->
    <title>icons/back1</title>
    <desc>Created with Sketch.</desc>
    <defs></defs>
    <g id="book_editor_1" stroke="none" stroke-width="1" fill="none" fill-rule="evenodd" transform="translate(-599.000000, -1062.000000)" stroke-linecap="round" stroke-linejoin="round">
        <g id="menu" transform="translate(0.000000, 1034.000000)" stroke="#000000">
            <g id="Group-7" transform="translate(596.000000, 28.000000)">
                <g id="icons/back">
                    <g id="Page-1" transform="translate(3.000000, 1.500000)">
                        <path d="M2.06175789,5.47293158 C4.08770526,3.23035263 7.21338947,2.0853 10.3888105,2.73187895 C15.1723895,3.70451053 18.2616,8.37203684 17.2878632,13.1545105 C16.3141263,17.9380895 11.6477053,21.0273 6.86412632,20.0535632 C4.17833684,19.5064579 2.02638947,17.7955105 0.828284211,15.5529316" id="Stroke-1" stroke-width="1.499"></path>
                        <polyline id="Stroke-3" stroke-width="1.499" points="4.5 0 1.92945789 5.52045789 7.5 7.5"></polyline>
                    </g>
                </g>
            </g>
        </g>
    </g>
</svg>