<svg xmlns="http://www.w3.org/2000/svg" width="16" height="16" viewBox="0 0 16 16">
    <g fill="none" fill-rule="evenodd" stroke="#000" stroke-linecap="round" stroke-linejoin="round" stroke-width="1.5" opacity=".3">
        <path d="M1.588 13h12.55V3.588H1.587z"/>
        <path d="M14.137 3.588L7.863 9.235 1.588 3.588"/>
    </g>
</svg>
