<svg xmlns="http://www.w3.org/2000/svg" width="80" height="64" viewBox="0 0 80 64">
    <g fill="none" fill-rule="evenodd" stroke-width="2">
        <path stroke="#E52100" d="M40.212 6.525S40.537 1 50.612 1h28.285v55.62H50.612c-10.075 0-10.4 5.525-10.4 5.525M39.686 62.145s-.325-5.525-10.4-5.525H1V1h28.285c10.076 0 10.4 5.525 10.4 5.525v55.62z"/>
        <path stroke="#000" stroke-linecap="round" stroke-linejoin="round" d="M1 1l77.898 55.62L40.212 6.525"/>
        <path stroke="#000" stroke-linecap="round" stroke-linejoin="round" d="M78.898 1L1 56.62 39.686 6.525"/>
    </g>
</svg>
