<svg xmlns="http://www.w3.org/2000/svg" width="17" height="16" viewBox="0 0 17 16">
    <g fill="#000" fill-rule="evenodd" opacity=".3">
        <path d="M14.198 6.765a.997.997 0 0 1-1.008-.985.997.997 0 0 1 1.008-.985.997.997 0 0 1 1.008.985.997.997 0 0 1-1.008.985zM12.034 14.9a.115.115 0 0 1-.116.114h-7.58a.115.115 0 0 1-.116-.114v-7.1h7.812v7.1zM15.281 3.81H.975A.964.964 0 0 0 0 4.763v5.071c0 .527.437.953.975.953H3.2v4.114c0 .606.505 1.099 1.125 1.099h7.607c.62 0 1.124-.493 1.124-1.099v-4.114h2.225a.964.964 0 0 0 .975-.953V4.763a.964.964 0 0 0-.975-.953z"/>
        <path d="M5.333 10.286h3.429V9.143H5.333zM5.333 12.19h5.334v-1.142H5.333zM5.333 14.095h5.334v-1.143H5.333zM12.952 3.048H11.94v-1.93a.117.117 0 0 0-.117-.116H4.178a.117.117 0 0 0-.117.116v1.93H3.048v-1.93C3.048.5 3.555 0 4.178 0h7.644c.623 0 1.13.501 1.13 1.118v1.93z"/>
    </g>
</svg>
