<svg xmlns="http://www.w3.org/2000/svg" width="16" height="16" viewBox="0 0 16 16">
    <path fill="#000" fill-rule="evenodd" d="M6.446 11.697h3.542v1.688H6.446V16H3.498v-2.615H2v-1.688h1.498v-1.593H2v-1.95h1.498V0h3.685c1.933 0 3.427.428 4.481 1.284 1.054.856 1.581 2.108 1.581 3.756 0 1.728-.527 3.004-1.58 3.828-1.055.824-2.517 1.236-4.387 1.236h-.832v1.593zm0-9.534v5.992h.784c.999 0 1.748-.234 2.247-.702.5-.467.749-1.264.749-2.39 0-1.03-.25-1.77-.749-2.222-.5-.452-1.264-.678-2.294-.678h-.737z" opacity=".3"/>
</svg>
