<?xml version="1.0" encoding="utf-8"?>
<!-- Generator: Adobe Illustrator 21.0.2, SVG Export Plug-In . SVG Version: 6.00 Build 0)  -->
<svg version="1.1" id="Слой_1" xmlns="http://www.w3.org/2000/svg" xmlns:xlink="http://www.w3.org/1999/xlink" x="0px" y="0px"
	 viewBox="0 0 30 30" style="enable-background:new 0 0 30 30;" xml:space="preserve">
<g>
	<path d="M12.4,25.4V14.1c-1.3-0.1-2.4-0.5-3.2-1.3C8.4,12,8.1,11,8.1,9.8c0-1.4,0.4-2.5,1.3-3.3c0.9-0.8,2.1-1.2,3.8-1.2h6.8v1.9
		h-1.5v18.3h-1.8V7.1h-2.4v18.3C14.2,25.4,12.4,25.4,12.4,25.4z"/>
</g>
</svg>
