<?xml version="1.0" encoding="utf-8"?>
<!-- Generator: Adobe Illustrator 21.0.2, SVG Export Plug-In . SVG Version: 6.00 Build 0)  -->
<svg version="1.1" id="Слой_1" xmlns="http://www.w3.org/2000/svg" xmlns:xlink="http://www.w3.org/1999/xlink" x="0px" y="0px"
	 viewBox="0 0 30 30" style="enable-background:new 0 0 30 30;" xml:space="preserve">
<g>
	<g>
		<path d="M11,22H7c-0.6,0-1-0.4-1-1s0.4-1,1-1h1V10H5v1c0,0.6-0.4,1-1,1s-1-0.4-1-1V9c0-0.6,0.4-1,1-1h10c0.6,0,1,0.4,1,1v2
			c0,0.6-0.4,1-1,1s-1-0.4-1-1v-1h-3v10h1c0.6,0,1,0.4,1,1S11.6,22,11,22z"/>
		<g>
			<path d="M24,22h-4c-0.6,0-1-0.4-1-1s0.4-1,1-1h1V10h-3v1c0,0.6-0.4,1-1,1s-1-0.4-1-1V9c0-0.6,0.4-1,1-1h10c0.6,0,1,0.4,1,1v2
				c0,0.6-0.4,1-1,1s-1-0.4-1-1v-1h-3v10h1c0.6,0,1,0.4,1,1S24.6,22,24,22z"/>
		</g>
	</g>
</g>
</svg>
