<?xml version="1.0" encoding="utf-8"?>
<!-- Generator: Adobe Illustrator 21.0.2, SVG Export Plug-In . SVG Version: 6.00 Build 0)  -->
<svg version="1.1" id="Слой_1" xmlns="http://www.w3.org/2000/svg" xmlns:xlink="http://www.w3.org/1999/xlink" x="0px" y="0px"
	 viewBox="0 0 30 30" style="enable-background:new 0 0 30 30;" xml:space="preserve">
<g>
	<path d="M26,11l-5.6-6.1C19.8,4.3,19,4,18.1,4H7.2c-1.6,0-3,1.3-3,2.9v16.2c0,1.6,1.3,2.9,3,2.9h16.5c1.6,0,3-1.3,3-2.9V13
		C26.7,12.2,26.4,11.5,26,11z M24.1,11.9h-3.6c-0.3,0-0.5-0.1-0.7-0.3c-0.2-0.2-0.3-0.4-0.3-0.7v-4L24.1,11.9L24.1,11.9z M23.8,24.1
		H7.2c-0.5,0-1-0.4-1-1c0,0,0,0,0,0V6.9c0-0.5,0.4-1,1-1h10.3v5c0,1.6,1.3,2.9,3,2.9h4.3v9.3C24.8,23.7,24.3,24.1,23.8,24.1
		C23.8,24.1,23.8,24.1,23.8,24.1L23.8,24.1z M10.3,8h3.6c1.1,0,2,0.9,2,2s-0.9,2-2,2h-3.6c-1.1,0-2-0.9-2-2S9.2,8,10.3,8z"/>
</g>
</svg>
