<?xml version="1.0" encoding="utf-8"?>
<!-- Generator: Adobe Illustrator 21.0.2, SVG Export Plug-In . SVG Version: 6.00 Build 0)  -->
<svg version="1.1" id="Слой_1" xmlns="http://www.w3.org/2000/svg" xmlns:xlink="http://www.w3.org/1999/xlink" x="0px" y="0px"
	 viewBox="0 0 30 30" style="enable-background:new 0 0 30 30;" xml:space="preserve">
<g>
	<path d="M22.1,14.4h-9.3c-0.4,0-0.8,0.4-0.8,1s0.4,1,0.8,1h9.3c0.4,0,0.8-0.4,0.8-1S22.5,14.4,22.1,14.4L22.1,14.4z M12.8,10h9.3
		c0.4,0,0.8-0.4,0.8-1s-0.4-1-0.8-1h-9.3C12.3,8,12,8.4,12,9S12.3,10,12.8,10z M22.1,20.8h-9.3c-0.4,0-0.8,0.4-0.8,1s0.4,1,0.8,1
		h9.3c0.4,0,0.8-0.4,0.8-1S22.5,20.8,22.1,20.8z M7.5,7.6C6.7,7.6,6,8.3,6,9.1s0.7,1.5,1.5,1.5c0.8,0,1.5-0.7,1.5-1.5
		S8.3,7.6,7.5,7.6z M7.5,14.1c-0.8,0-1.5,0.7-1.5,1.5s0.7,1.5,1.5,1.5c0.8,0,1.5-0.7,1.5-1.5S8.3,14.1,7.5,14.1z M7.5,20.3
		C6.7,20.3,6,21,6,21.8c0,0.8,0.7,1.5,1.5,1.5c0.8,0,1.5-0.7,1.5-1.5C8.9,21,8.3,20.3,7.5,20.3z"/>
</g>
</svg>
