<?xml version="1.0" encoding="utf-8"?>
<!-- Generator: Adobe Illustrator 21.0.2, SVG Export Plug-In . SVG Version: 6.00 Build 0)  -->
<svg version="1.1" id="Слой_1" xmlns="http://www.w3.org/2000/svg" xmlns:xlink="http://www.w3.org/1999/xlink" x="0px" y="0px"
	 viewBox="0 0 30 30" style="enable-background:new 0 0 30 30;" xml:space="preserve">
<g>
	<g transform="translate(6 6)">
		<path d="M16,19H2c-1.7,0-3-1.3-3-3V2c0-1.7,1.3-3,3-3h14c1.7,0,3,1.3,3,3v14C19,17.7,17.7,19,16,19z M2,1C1.4,1,1,1.4,1,2v14
			c0,0.6,0.4,1,1,1h14c0.6,0,1-0.4,1-1V2c0-0.6-0.4-1-1-1H2z"/>
		<path d="M5.5,9C3.6,9,2,7.4,2,5.5S3.6,2,5.5,2S9,3.6,9,5.5S7.4,9,5.5,9z M5.5,4C4.7,4,4,4.7,4,5.5S4.7,7,5.5,7S7,6.3,7,5.5
			S6.3,4,5.5,4z"/>
		<path d="M2,19c-0.3,0-0.5-0.1-0.7-0.3c-0.4-0.4-0.4-1,0-1.4l11-11c0.4-0.4,1-0.4,1.4,0l5,5c0.4,0.4,0.4,1,0,1.4s-1,0.4-1.4,0
			L13,8.4L2.7,18.7C2.5,18.9,2.3,19,2,19z"/>
	</g>
</g>
</svg>
