<?xml version="1.0" encoding="utf-8"?>
<!-- Generator: Adobe Illustrator 21.0.2, SVG Export Plug-In . SVG Version: 6.00 Build 0)  -->
<svg version="1.1" id="Слой_1" xmlns="http://www.w3.org/2000/svg" xmlns:xlink="http://www.w3.org/1999/xlink" x="0px" y="0px"
	 viewBox="0 0 30 30" style="enable-background:new 0 0 30 30;" xml:space="preserve">
<g>
	<g>
		<path d="M21.9,8.1H13c-0.5,0-0.9,0.4-0.9,1c0,0,0,0,0,0c0,0.5,0.4,1,0.9,1h8.9c0.5,0,0.9-0.4,0.9-1c0,0,0,0,0,0
			C22.8,8.5,22.4,8.1,21.9,8.1L21.9,8.1z M21.9,14.4H13c-0.5,0-0.9,0.4-0.9,1c0,0,0,0,0,0c0,0.5,0.4,1,0.9,1h8.9
			c0.5,0,0.9-0.4,0.9-1C22.8,14.8,22.4,14.4,21.9,14.4z"/>
		<path d="M8.9,11.3l-1.1,0c-0.4,0-0.5-0.1-0.5-0.3c0-0.3,0.2-0.4,0.6-0.4c0,0,0.1,0,0.1,0V8C7.8,8.1,7.7,8.2,7.6,8.2
			c-0.1,0-0.2,0-0.3-0.1C7.2,8,7.2,7.9,7.2,7.8c0-0.1,0.1-0.2,0.2-0.3l0.3-0.2l0.4-0.3c0.1-0.1,0.3-0.1,0.4-0.2
			c0.2,0,0.3,0.1,0.3,0.3c0,0.2,0,0.6,0,1c0,0.4,0,1,0,1.8v0.7h0.2c0.1,0,0.2,0,0.3,0.1c0.1,0.1,0.1,0.2,0.1,0.3
			c0,0.1,0,0.2-0.1,0.3C9.1,11.2,9,11.3,8.9,11.3z M9.4,17.5c0,0-0.1,0-0.2,0c-0.1,0-0.1,0-0.2,0l-0.8,0c-0.1,0-0.2,0-0.3,0
			c-0.1,0-0.2,0-0.3,0c0,0-0.1,0-0.1,0c0,0-0.1,0-0.1,0c-0.2,0-0.3-0.1-0.3-0.2c0-0.1-0.1-0.2-0.1-0.4c0-0.4,0.1-0.7,0.2-0.9
			c0.1-0.2,0.3-0.4,0.6-0.6l0.8-0.5c0.3-0.2,0.5-0.5,0.5-0.8c0-0.1-0.1-0.1-0.2-0.2c-0.1-0.1-0.2-0.1-0.4-0.1
			c-0.2,0-0.4,0.1-0.6,0.3c-0.2,0.2-0.4,0.3-0.5,0.3c-0.1,0-0.2,0-0.3-0.1c-0.1-0.1-0.1-0.2-0.1-0.3c0-0.1,0.1-0.2,0.1-0.3
			c0.2-0.2,0.4-0.4,0.6-0.4c0.3-0.1,0.5-0.2,0.8-0.2c0.3,0,0.6,0.1,0.9,0.3c0.3,0.2,0.5,0.5,0.5,0.8c0,0.3-0.1,0.6-0.2,0.8
			c-0.1,0.2-0.3,0.4-0.6,0.5L8.3,16c-0.4,0.2-0.6,0.5-0.6,0.8c0.1,0,0.3,0,0.5,0c0.4,0,0.7,0,0.9,0c0.2,0,0.3,0,0.5,0.1
			c0.2,0.1,0.3,0.2,0.3,0.3c0,0.1,0,0.2-0.1,0.3C9.6,17.5,9.5,17.5,9.4,17.5z M9.2,21.4c0.4,0.2,0.6,0.6,0.6,1.1
			c0,0.4-0.1,0.7-0.4,1c-0.3,0.3-0.6,0.4-1.1,0.4c-0.3,0-0.6-0.1-0.8-0.2c-0.3-0.1-0.5-0.4-0.6-0.6c0,0,0-0.1,0-0.1
			c0-0.1,0-0.2,0.1-0.3c0.1-0.1,0.2-0.1,0.3-0.1c0.1,0,0.2,0,0.3,0.1C7.6,22.9,7.7,23,7.7,23c0.1,0.1,0.3,0.1,0.5,0.1
			c0.2,0,0.3-0.1,0.5-0.2c0.1-0.1,0.2-0.2,0.2-0.4c0-0.5-0.3-0.7-1-0.8c-0.3,0-0.4-0.1-0.4-0.4c0-0.2,0.1-0.3,0.3-0.3l0.6-0.1
			c0.1,0,0.2-0.1,0.3-0.2c0.1-0.1,0.1-0.1,0.1-0.2c0-0.3-0.2-0.4-0.7-0.4c-0.1,0-0.3,0.1-0.5,0.2c-0.2,0.1-0.3,0.2-0.4,0.2
			c-0.1,0-0.2,0-0.3-0.1C7,20.3,7,20.2,7,20.1c0-0.2,0.2-0.3,0.5-0.5c0.3-0.1,0.5-0.2,0.7-0.2c0.4,0,0.8,0.1,1.1,0.3
			c0.3,0.2,0.4,0.5,0.4,0.9c0,0.2,0,0.4-0.1,0.5C9.4,21.2,9.3,21.4,9.2,21.4z"/>
		<path d="M21.9,20.8H13c-0.5,0-0.9,0.4-0.9,1c0,0,0,0,0,0c0,0.5,0.4,1,0.9,1h8.9c0.5,0,0.9-0.4,0.9-1
			C22.8,21.2,22.4,20.8,21.9,20.8L21.9,20.8z"/>
	</g>
</g>
</svg>
