<?xml version="1.0" encoding="UTF-8"?>
<svg width="30px" height="11px" viewBox="0 0 30 11" version="1.1" xmlns="http://www.w3.org/2000/svg" xmlns:xlink="http://www.w3.org/1999/xlink">
    <!-- Generator: Sketch 49 (51002) - http://www.bohemiancoding.com/sketch -->
    <title>или</title>
    <desc>Created with Sketch.</desc>
    <defs></defs>
    <g id="Page-9-—-Awward" stroke="none" stroke-width="1" fill="none" fill-rule="evenodd">
        <g id="Awward" transform="translate(-625.000000, -3177.000000)" fill="#000000">
            <path d="M626.09,3180.56 L625.73,3180.14 C626.75,3178.7 628.05,3177.88 629.03,3177.88 C629.33,3177.88 629.51,3178.12 629.51,3178.52 C629.51,3178.74 629.45,3179.06 629.17,3179.9 C628.81,3181.14 628.15,3183.2 627.79,3184.5 C627.49,3185.58 627.59,3186.1 628.09,3186.1 C629.41,3186.1 631.39,3183.08 632.37,3180.46 C632.65,3179.7 632.83,3179.1 633.11,3178.12 C633.61,3178.12 634.17,3178.08 634.63,3178.04 C633.83,3180.72 632.93,3183.96 632.59,3185.38 C632.53,3185.66 632.49,3185.94 632.73,3185.94 C633.05,3185.94 633.75,3185.38 634.51,3184.14 L634.93,3184.52 C633.79,3186.6 632.43,3187.24 631.69,3187.24 C631.17,3187.24 631.01,3186.92 631.01,3186.4 C631.01,3185.84 631.25,3184.86 631.77,3183.08 C630.27,3185.88 628.61,3187.24 627.09,3187.24 C626.37,3187.24 626.09,3186.68 626.09,3186.02 C626.09,3185.58 626.23,3184.88 626.37,3184.34 C626.83,3182.76 627.47,3180.82 627.81,3179.62 C627.87,3179.42 627.89,3179.24 627.73,3179.24 C627.45,3179.24 626.91,3179.6 626.09,3180.56 Z M643.83,3184.14 L644.21,3184.54 C643.25,3186.16 641.91,3187.24 640.93,3187.24 C640.15,3187.24 640.15,3186.34 640.59,3184.66 C640.91,3183.5 641.65,3181.26 642.33,3179.06 C642.41,3178.82 642.35,3178.72 642.23,3178.72 C642.11,3178.72 641.73,3178.74 641.41,3178.82 C641.01,3179.32 640.37,3180.68 638.69,3184 C637.21,3186.9 636.19,3187.26 635.47,3187.26 C635.01,3187.26 634.63,3186.96 634.63,3186.42 C634.63,3185.62 635.13,3185 635.53,3185 C635.87,3185 636.13,3185.74 636.47,3185.74 C636.63,3185.74 637.05,3185.52 638.03,3183.66 C639.25,3181.44 640.17,3179.48 640.63,3178.9 C640.17,3178.98 639.57,3179.12 638.77,3179.38 L638.83,3178.78 C640.19,3178.2 642.33,3177.88 643.25,3177.88 C643.95,3177.88 643.93,3178.16 643.33,3180.08 C642.81,3181.84 642.31,3183.64 641.95,3185.06 C641.85,3185.42 641.77,3185.94 641.95,3185.94 C642.23,3185.94 642.83,3185.54 643.83,3184.14 Z M645.75,3180.56 L645.39,3180.14 C646.41,3178.7 647.71,3177.88 648.69,3177.88 C648.99,3177.88 649.17,3178.12 649.17,3178.52 C649.17,3178.74 649.11,3179.06 648.83,3179.9 C648.47,3181.14 647.81,3183.2 647.45,3184.5 C647.15,3185.58 647.25,3186.1 647.75,3186.1 C649.07,3186.1 651.05,3183.08 652.03,3180.46 C652.31,3179.7 652.49,3179.1 652.77,3178.12 C653.27,3178.12 653.83,3178.08 654.29,3178.04 C653.49,3180.72 652.59,3183.96 652.25,3185.38 C652.19,3185.66 652.15,3185.94 652.39,3185.94 C652.71,3185.94 653.41,3185.38 654.17,3184.14 L654.59,3184.52 C653.45,3186.6 652.09,3187.24 651.35,3187.24 C650.83,3187.24 650.67,3186.92 650.67,3186.4 C650.67,3185.84 650.91,3184.86 651.43,3183.08 C649.93,3185.88 648.27,3187.24 646.75,3187.24 C646.03,3187.24 645.75,3186.68 645.75,3186.02 C645.75,3185.58 645.89,3184.88 646.03,3184.34 C646.49,3182.76 647.13,3180.82 647.47,3179.62 C647.53,3179.42 647.55,3179.24 647.39,3179.24 C647.11,3179.24 646.57,3179.6 645.75,3180.56 Z" id="или"></path>
        </g>
    </g>
</svg>