<?xml version="1.0" encoding="utf-8"?>
<!-- Generator: Adobe Illustrator 21.0.2, SVG Export Plug-In . SVG Version: 6.00 Build 0)  -->
<svg version="1.1" id="Слой_1" xmlns="http://www.w3.org/2000/svg" xmlns:xlink="http://www.w3.org/1999/xlink" x="0px" y="0px"
	 viewBox="0 0 30 30" style="enable-background:new 0 0 30 30;" xml:space="preserve">
<g>
	<g>
		<path d="M23,23.7H6.3c-0.6,0-1-0.4-1-1s0.4-1,1-1H23c0.6,0,1,0.4,1,1S23.6,23.7,23,23.7z M22.7,18.8H6.3c-0.6,0-1-0.4-1-1
			s0.4-1,1-1h16.5c0.6,0,1,0.4,1,1S23.3,18.8,22.7,18.8z M22.7,13.8H6.3c-0.6,0-1-0.4-1-1s0.4-1,1-1h16.5c0.6,0,1,0.4,1,1
			S23.3,13.8,22.7,13.8z M10,10.5c-0.3,0-0.5-0.1-0.7-0.3c-0.3-0.4-0.3-0.9,0-1.3H5c-0.6,0-1-0.4-1-1s0.4-1,1-1h4.5L9.3,6.7
			c-0.4-0.4-0.4-1-0.1-1.4c0.4-0.4,1-0.4,1.4-0.1l1.6,1.5c0.3,0.3,0.4,0.6,0.3,1c0.1,0.3,0,0.7-0.3,1l-1.6,1.5
			C10.5,10.4,10.2,10.5,10,10.5z M22.7,8.9H15c-0.6,0-1-0.4-1-1s0.4-1,1-1h7.7c0.6,0,1,0.4,1,1S23.3,8.9,22.7,8.9z"/>
	</g>
</g>
</svg>
